a:1:{i:0;a:7:{s:5:"model";s:17:"Advan Neova AD08R";s:5:"price";i:5145;s:12:"availability";b:1;s:6:"season";s:8:"Лето";s:5:"width";s:3:"245";s:7:"profile";s:2:"40";s:8:"diameter";s:2:"18";}}
a:1:{i:0;a:8:{s:5:"model";s:18:"Assassin 821 Black";s:5:"price";i:2173;s:12:"availability";b:1;s:5:"width";s:1:"8";s:8:"diameter";s:2:"18";s:2:"et";s:2:"45";s:3:"pcd";s:5:"5*120";s:3:"hub";s:4:"72.6";}}
a:1:{i:0;a:8:{s:5:"model";s:13:"Assassin 2223";s:5:"price";i:2123;s:12:"availability";b:1;s:5:"width";s:3:"223";s:8:"diameter";s:3:"418";s:2:"et";s:3:"345";s:3:"pcd";s:6:"25*230";s:3:"hub";s:4:"74.6";}}
a:1:{i:0;a:8:{s:5:"model";s:13:"New model 123";s:5:"price";i:2233;s:12:"availability";b:1;s:5:"width";s:3:"223";s:8:"diameter";s:3:"418";s:2:"et";s:3:"345";s:3:"pcd";s:6:"25*230";s:3:"hub";s:4:"74.6";}}
